Project 1 by Ana Cardenas
…
BothData %>% group_by(artistName, trackName) %>% summarize(mean_minsplayed = mean(msPlayed)) %>% arrange(desc(mean_minsplayed))

## # A tibble: 2,105 x 3
## # Groups:   artistName [909]
##    artistName     trackName                                      mean_minsplayed
##    <chr>          <chr>                                                    <dbl>
##  1 Housefires     Iâ€™ll Give Thanks - Live                              536653 
##  2 Hillsong UNIT~ As You Find Me - Live                                  522120 
##  3 Bob Dylan      Like a Rolling Stone - Live at Royal Albert H~         505240 
##  4 Jesus Culture  Your Love Never Fails - Live                           474217 
##  5 Hillsong Wors~ Broken Vessels (Amazing Grace) - Live                  450170.
##  6 Michael W. Sm~ Waymaker                                               437131 
##  7 Paul Cardall   Letting Go                                             412266 
##  8 Eagles         Hotel California - Live at The Forum, Los Ang~         409520 
##  9 Piano Prayer   So Will I (100 Billion X)                              409445 
## 10 Hillsong UNIT~ So Will I (100 Billion X)                              407725 
## # ... with 2,095 more rows
…
BothData%>% summarize_at(c("msPlayed", "bpm", "nrgy", "dnce", "live", "pop"), mean, na.rm= T)

##   msPlayed      bpm     nrgy     dnce     live      pop
## 1 157720.7 110.2818 54.90682 70.07841 14.46705 94.91591

BothData %>% group_by(artistName, trackName) %>% summarize(mean_minsplayed = mean(msPlayed)) %>% arrange(desc(mean_minsplayed))

## # A tibble: 2,105 x 3
## # Groups:   artistName [909]
##    artistName     trackName                                      mean_minsplayed
##    <chr>          <chr>                                                    <dbl>
##  1 Housefires     Iâ€™ll Give Thanks - Live                              536653 
##  2 Hillsong UNIT~ As You Find Me - Live                                  522120 
##  3 Bob Dylan      Like a Rolling Stone - Live at Royal Albert H~         505240 
##  4 Jesus Culture  Your Love Never Fails - Live                           474217 
##  5 Hillsong Wors~ Broken Vessels (Amazing Grace) - Live                  450170.
##  6 Michael W. Sm~ Waymaker                                               437131 
##  7 Paul Cardall   Letting Go                                             412266 
##  8 Eagles         Hotel California - Live at The Forum, Los Ang~         409520 
##  9 Piano Prayer   So Will I (100 Billion X)                              409445 
## 10 Hillsong UNIT~ So Will I (100 Billion X)                              407725 
## # ... with 2,095 more rows

BothData %>% summarize_at(c("msPlayed", "bpm", "nrgy", "dnce", "live", "pop"), sd, na.rm= T)

##   msPlayed      bpm     nrgy     dnce     live      pop
## 1 85605.09 22.83014 16.72206 11.24551 10.46534 5.869434

BothData %>% group_by(trackName) %>% summarize(sd_minsplayed = sd(msPlayed)) %>% arrange(desc(sd_minsplayed))

## # A tibble: 2,044 x 2
##    trackName                                                       sd_minsplayed
##    <chr>                                                                   <dbl>
##  1 Oceans (Where Feet May Fail)                                          233043.
##  2 Here Now (Madness) - Live                                             230001.
##  3 Go Loko                                                               192448.
##  4 I Am Free - Live                                                      189582.
##  5 Bed Of Lies                                                           187753.
##  6 Mary Jane's Last Dance                                                184508.
##  7 Stones Under Rushing Water (feat. Drew Holcomb & Ellie Holcomb~       181626.
##  8 Not Today                                                             179440.
##  9 Believe                                                               172853.
## 10 Holding On to You                                                     170866.
## # ... with 2,034 more rows

BothData %>% summarize_at(c("msPlayed", "bpm", "nrgy", "dnce", "live", "pop"), var, na.rm= T)

##     msPlayed      bpm     nrgy     dnce     live      pop
## 1 7328231410 521.2151 279.6273 126.4614 109.5234 34.45026

BothData %>% group_by(trackName) %>% summarize(var_minsplayed = var(msPlayed)) %>% arrange(desc(var_minsplayed))

## # A tibble: 2,044 x 2
##    trackName                                                      var_minsplayed
##    <chr>                                                                   <dbl>
##  1 Oceans (Where Feet May Fail)                                     54309168912.
##  2 Here Now (Madness) - Live                                        52900286450 
##  3 Go Loko                                                          37036349284.
##  4 I Am Free - Live                                                 35941486050 
##  5 Bed Of Lies                                                      35251231764.
##  6 Mary Jane's Last Dance                                           34043276178 
##  7 Stones Under Rushing Water (feat. Drew Holcomb & Ellie Holcom~   32988158597.
##  8 Not Today                                                        32198591378 
##  9 Believe                                                          29878264650.
## 10 Holding On to You                                                29195186440.
## # ... with 2,034 more rows
…
BothData %>% summarize_at(c("msPlayed", "bpm", "nrgy", "dnce", "live"), max, na.rm= T)

##   msPlayed bpm nrgy dnce live
## 1   568786 205   90   90   79

BothData %>% summarize_at(c("msPlayed", "bpm", "nrgy", "dnce", "live", "pop"), median, na.rm= T)

##   msPlayed bpm nrgy dnce live pop
## 1   185706 102   59   72   10  97

BothData %>% count(msPlayed, bpm, nrgy, dnce, live, pop, sort = TRUE)

## # A tibble: 3,699 x 7
##    msPlayed   bpm  nrgy  dnce  live   pop     n
##       <int> <int> <int> <int> <int> <int> <int>
##  1   209438    98    59    82    15   100    85
##  2   189486    91    32    76     8    99    50
##  3        0    NA    NA    NA    NA    NA    42
##  4   197866    93    65    64     8    86    40
##  5   215280   120    76    70     9    99    40
##  6   197436    NA    NA    NA    NA    NA    36
##  7   230266    NA    NA    NA    NA    NA    32
##  8   182160   110    41    50    11    96    30
##  9   211466    NA    NA    NA    NA    NA    25
## 10   210240    NA    NA    NA    NA    NA    21
## # ... with 3,689 more rows
…
BothDataClean %>% group_by(top.genre) %>% summarise(n=n()) %>% mutate(frequency = n/sum(n)) %>% arrange(desc(frequency))

## # A tibble: 26 x 3
##    top.genre                     n frequency
##    <chr>                     <int>     <dbl>
##  1 pop                          12    0.194 
##  2 dance pop                     9    0.145 
##  3 latin                         6    0.0968
##  4 dfw rap                       3    0.0484
##  5 electropop                    3    0.0484
##  6 pop rap                       3    0.0484
##  7 adult standards               2    0.0323
##  8 australian pop                2    0.0323
##  9 canadian contemporary r&b     2    0.0323
## 10 chicago rap                   2    0.0323
## # ... with 16 more rows

BothData%>% group_by(trackName) %>% summarise(n=n()) %>% mutate(frequency = n/sum(n)) %>% arrange(desc(frequency))

## # A tibble: 2,044 x 3
##    trackName                           n frequency
##    <chr>                           <int>     <dbl>
##  1 Memories                          130   0.0195 
##  2 Dance Monkey                      119   0.0178 
##  3 Circles                            56   0.00839
##  4 Beautiful People (feat. Khalid)    52   0.00779
##  5 bad guy                            50   0.00749
##  6 Say You Won't Let Go               48   0.00719
##  7 I Like Me Better                   43   0.00644
##  8 ROXANNE                            42   0.00629
##  9 Praying                            40   0.00599
## 10 Someone You Loved                  40   0.00599
## # ... with 2,034 more rows
…
BothData%>% group_by(artistName) %>% summarise(n=n()) %>% mutate(frequency = n/sum(n)) %>% arrange(desc(frequency))

## # A tibble: 909 x 3
##    artistName         n frequency
##    <chr>          <int>     <dbl>
##  1 Taylor Swift     543    0.0813
##  2 Jonas Brothers   343    0.0514
##  3 Post Malone      151    0.0226
##  4 Ed Sheeran       128    0.0192
##  5 Maroon 5         126    0.0189
##  6 Thomas Rhett     122    0.0183
##  7 Tones and I      121    0.0181
##  8 Shawn Mendes     102    0.0153
##  9 Selena Gomez      96    0.0144
## 10 Dan + Shay        94    0.0141
## # ... with 899 more rows
…
pam1 <- clusteringdata1 %>% select(nrgy, bpm, pop, dnce, live, acous, spch, pop) %>% pam(3)
final1 <- clusteringdata1 %>% mutate(cluster=as.factor(pam1$clustering))
confmat1 <- final1%>% group_by(top.genre) %>% count(cluster) %>% arrange(desc(n)) %>% pivot_wider(names_from = "cluster", values_from = "n", values_fill = list('n'=0))
confmat1

## # A tibble: 26 x 4
## # Groups:   top.genre [26]
##    top.genre                   `1`   `2`   `3`
##    <chr>                     <int> <int> <int>
##  1 dance pop                     7     2     0
##  2 latin                         6     0     0
##  3 pop                           5     6     1
##  4 electropop                    0     3     0
##  5 adult standards               0     2     0
##  6 australian pop                0     2     0
##  7 canadian contemporary r&b     0     0     2
##  8 dfw rap                       1     2     0
##  9 melodic rap                   2     0     0
## 10 pop rap                       2     1     0
## # ... with 16 more rows
…
